{
  "velocity16.web.panel.render.time": [
    "analyticEventVersion",
    "atlassianPlugin",
    "pluginKeyResponsible",
    "renderExceptionThrown",
    "renderTimeMilliseconds",
    "templateName"
  ]
}
